{
    "builders": [
        {
            "type": "amazon-ebs",
            "access_key": "{{user `aws_access_key`}}",
            "secret_key": "{{user `aws_secret_key`}}",
            "region": "{{user `aws_region`}}",
            "instance_type": "t2.micro",
            "force_deregister": "true",
            "communicator": "ssh",
            "ssh_username": "{{ user `ssh_username` }}",
            "associate_public_ip_address": false,
            "source_ami_filter": {
                "filters": {
                    "virtualization-type": "hvm",
                    "architecture": "x86_64",
                    "name": "ubuntu/images/hvm-ssd/ubuntu-bionic-18.04-amd64-server-*",
                    "block-device-mapping.volume-type": "gp2",
                    "root-device-type": "ebs"
                },
                "owners": ["099720109477"],
                "most_recent": true
            },
            "ami_name": "packer-build-db {{ timestamp }}"
        }
    ],
    "provisioners": [
        {
            "type": "shell",
            "inline": "while [ ! -f /var/lib/cloud/instance/boot-finished ]; do echo 'Waiting for cloud-init...'; sleep 1; done"
        },
        {
            "type": "shell",
            "script": "./provisioners/scripts/bootstrap.sh"
        },
        {
            "type": "ansible",
            "playbook_file": "../database-build-pb.yml",
            "ansible_env_vars": [
                "MYSQL_ROOT_PASS={{user `mysql_root_pass`}}",
                "DB_PORT={{user `db_port`}}",
                "DB_DATABASE={{user `db_database`}}",
                "DB_USERNAME={{user `db_username`}}",
                "DB_PASSWORD={{user `db_password`}}"
            ]
        }
    ]
}